%!PS-Adobe-2.0 EPSF-2.0
%%Title: beta_matched.eps
%%Creator: gnuplot 4.6 patchlevel 2
%%CreationDate: Tue Aug 11 16:33:52 2020
%%DocumentFonts: (atend)
%%BoundingBox: 50 50 266 201
%%EndComments
%%BeginProlog
/gnudict 256 dict def
gnudict begin
%
% The following true/false flags may be edited by hand if desired.
% The unit line width and grayscale image gamma correction may also be changed.
%
/Color true def
/Blacktext false def
/Solid true def
/Dashlength 1 def
/Landscape false def
/Level1 false def
/Rounded false def
/ClipToBoundingBox false def
/SuppressPDFMark false def
/TransparentPatterns false def
/gnulinewidth 5.000 def
/userlinewidth gnulinewidth def
/Gamma 1.0 def
/BackgroundColor {-1.000 -1.000 -1.000} def
%
/vshift -40 def
/dl1 {
  10.0 Dashlength mul mul
  Rounded { currentlinewidth 0.75 mul sub dup 0 le { pop 0.01 } if } if
} def
/dl2 {
  10.0 Dashlength mul mul
  Rounded { currentlinewidth 0.75 mul add } if
} def
/hpt_ 31.5 def
/vpt_ 31.5 def
/hpt hpt_ def
/vpt vpt_ def
/doclip {
  ClipToBoundingBox {
    newpath 50 50 moveto 266 50 lineto 266 201 lineto 50 201 lineto closepath
    clip
  } if
} def
%
% Gnuplot Prolog Version 4.6 (September 2012)
%
%/SuppressPDFMark true def
%
/M {moveto} bind def
/L {lineto} bind def
/R {rmoveto} bind def
/V {rlineto} bind def
/N {newpath moveto} bind def
/Z {closepath} bind def
/C {setrgbcolor} bind def
/f {rlineto fill} bind def
/g {setgray} bind def
/Gshow {show} def   % May be redefined later in the file to support UTF-8
/vpt2 vpt 2 mul def
/hpt2 hpt 2 mul def
/Lshow {currentpoint stroke M 0 vshift R 
	Blacktext {gsave 0 setgray show grestore} {show} ifelse} def
/Rshow {currentpoint stroke M dup stringwidth pop neg vshift R
	Blacktext {gsave 0 setgray show grestore} {show} ifelse} def
/Cshow {currentpoint stroke M dup stringwidth pop -2 div vshift R 
	Blacktext {gsave 0 setgray show grestore} {show} ifelse} def
/UP {dup vpt_ mul /vpt exch def hpt_ mul /hpt exch def
  /hpt2 hpt 2 mul def /vpt2 vpt 2 mul def} def
/DL {Color {setrgbcolor Solid {pop []} if 0 setdash}
 {pop pop pop 0 setgray Solid {pop []} if 0 setdash} ifelse} def
/BL {stroke userlinewidth 2 mul setlinewidth
	Rounded {1 setlinejoin 1 setlinecap} if} def
/AL {stroke userlinewidth 2 div setlinewidth
	Rounded {1 setlinejoin 1 setlinecap} if} def
/UL {dup gnulinewidth mul /userlinewidth exch def
	dup 1 lt {pop 1} if 10 mul /udl exch def} def
/PL {stroke userlinewidth setlinewidth
	Rounded {1 setlinejoin 1 setlinecap} if} def
3.8 setmiterlimit
% Default Line colors
/LCw {1 1 1} def
/LCb {0 0 0} def
/LCa {0 0 0} def
/LC0 {1 0 0} def
/LC1 {0 1 0} def
/LC2 {0 0 1} def
/LC3 {1 0 1} def
/LC4 {0 1 1} def
/LC5 {1 1 0} def
/LC6 {0 0 0} def
/LC7 {1 0.3 0} def
/LC8 {0.5 0.5 0.5} def
% Default Line Types
/LTw {PL [] 1 setgray} def
/LTb {BL [] LCb DL} def
/LTa {AL [1 udl mul 2 udl mul] 0 setdash LCa setrgbcolor} def
/LT0 {PL [] LC0 DL} def
/LT1 {PL [4 dl1 2 dl2] LC1 DL} def
/LT2 {PL [2 dl1 3 dl2] LC2 DL} def
/LT3 {PL [1 dl1 1.5 dl2] LC3 DL} def
/LT4 {PL [6 dl1 2 dl2 1 dl1 2 dl2] LC4 DL} def
/LT5 {PL [3 dl1 3 dl2 1 dl1 3 dl2] LC5 DL} def
/LT6 {PL [2 dl1 2 dl2 2 dl1 6 dl2] LC6 DL} def
/LT7 {PL [1 dl1 2 dl2 6 dl1 2 dl2 1 dl1 2 dl2] LC7 DL} def
/LT8 {PL [2 dl1 2 dl2 2 dl1 2 dl2 2 dl1 2 dl2 2 dl1 4 dl2] LC8 DL} def
/Pnt {stroke [] 0 setdash gsave 1 setlinecap M 0 0 V stroke grestore} def
/Dia {stroke [] 0 setdash 2 copy vpt add M
  hpt neg vpt neg V hpt vpt neg V
  hpt vpt V hpt neg vpt V closepath stroke
  Pnt} def
/Pls {stroke [] 0 setdash vpt sub M 0 vpt2 V
  currentpoint stroke M
  hpt neg vpt neg R hpt2 0 V stroke
 } def
/Box {stroke [] 0 setdash 2 copy exch hpt sub exch vpt add M
  0 vpt2 neg V hpt2 0 V 0 vpt2 V
  hpt2 neg 0 V closepath stroke
  Pnt} def
/Crs {stroke [] 0 setdash exch hpt sub exch vpt add M
  hpt2 vpt2 neg V currentpoint stroke M
  hpt2 neg 0 R hpt2 vpt2 V stroke} def
/TriU {stroke [] 0 setdash 2 copy vpt 1.12 mul add M
  hpt neg vpt -1.62 mul V
  hpt 2 mul 0 V
  hpt neg vpt 1.62 mul V closepath stroke
  Pnt} def
/Star {2 copy Pls Crs} def
/BoxF {stroke [] 0 setdash exch hpt sub exch vpt add M
  0 vpt2 neg V hpt2 0 V 0 vpt2 V
  hpt2 neg 0 V closepath fill} def
/TriUF {stroke [] 0 setdash vpt 1.12 mul add M
  hpt neg vpt -1.62 mul V
  hpt 2 mul 0 V
  hpt neg vpt 1.62 mul V closepath fill} def
/TriD {stroke [] 0 setdash 2 copy vpt 1.12 mul sub M
  hpt neg vpt 1.62 mul V
  hpt 2 mul 0 V
  hpt neg vpt -1.62 mul V closepath stroke
  Pnt} def
/TriDF {stroke [] 0 setdash vpt 1.12 mul sub M
  hpt neg vpt 1.62 mul V
  hpt 2 mul 0 V
  hpt neg vpt -1.62 mul V closepath fill} def
/DiaF {stroke [] 0 setdash vpt add M
  hpt neg vpt neg V hpt vpt neg V
  hpt vpt V hpt neg vpt V closepath fill} def
/Pent {stroke [] 0 setdash 2 copy gsave
  translate 0 hpt M 4 {72 rotate 0 hpt L} repeat
  closepath stroke grestore Pnt} def
/PentF {stroke [] 0 setdash gsave
  translate 0 hpt M 4 {72 rotate 0 hpt L} repeat
  closepath fill grestore} def
/Circle {stroke [] 0 setdash 2 copy
  hpt 0 360 arc stroke Pnt} def
/CircleF {stroke [] 0 setdash hpt 0 360 arc fill} def
/C0 {BL [] 0 setdash 2 copy moveto vpt 90 450 arc} bind def
/C1 {BL [] 0 setdash 2 copy moveto
	2 copy vpt 0 90 arc closepath fill
	vpt 0 360 arc closepath} bind def
/C2 {BL [] 0 setdash 2 copy moveto
	2 copy vpt 90 180 arc closepath fill
	vpt 0 360 arc closepath} bind def
/C3 {BL [] 0 setdash 2 copy moveto
	2 copy vpt 0 180 arc closepath fill
	vpt 0 360 arc closepath} bind def
/C4 {BL [] 0 setdash 2 copy moveto
	2 copy vpt 180 270 arc closepath fill
	vpt 0 360 arc closepath} bind def
/C5 {BL [] 0 setdash 2 copy moveto
	2 copy vpt 0 90 arc
	2 copy moveto
	2 copy vpt 180 270 arc closepath fill
	vpt 0 360 arc} bind def
/C6 {BL [] 0 setdash 2 copy moveto
	2 copy vpt 90 270 arc closepath fill
	vpt 0 360 arc closepath} bind def
/C7 {BL [] 0 setdash 2 copy moveto
	2 copy vpt 0 270 arc closepath fill
	vpt 0 360 arc closepath} bind def
/C8 {BL [] 0 setdash 2 copy moveto
	2 copy vpt 270 360 arc closepath fill
	vpt 0 360 arc closepath} bind def
/C9 {BL [] 0 setdash 2 copy moveto
	2 copy vpt 270 450 arc closepath fill
	vpt 0 360 arc closepath} bind def
/C10 {BL [] 0 setdash 2 copy 2 copy moveto vpt 270 360 arc closepath fill
	2 copy moveto
	2 copy vpt 90 180 arc closepath fill
	vpt 0 360 arc closepath} bind def
/C11 {BL [] 0 setdash 2 copy moveto
	2 copy vpt 0 180 arc closepath fill
	2 copy moveto
	2 copy vpt 270 360 arc closepath fill
	vpt 0 360 arc closepath} bind def
/C12 {BL [] 0 setdash 2 copy moveto
	2 copy vpt 180 360 arc closepath fill
	vpt 0 360 arc closepath} bind def
/C13 {BL [] 0 setdash 2 copy moveto
	2 copy vpt 0 90 arc closepath fill
	2 copy moveto
	2 copy vpt 180 360 arc closepath fill
	vpt 0 360 arc closepath} bind def
/C14 {BL [] 0 setdash 2 copy moveto
	2 copy vpt 90 360 arc closepath fill
	vpt 0 360 arc} bind def
/C15 {BL [] 0 setdash 2 copy vpt 0 360 arc closepath fill
	vpt 0 360 arc closepath} bind def
/Rec {newpath 4 2 roll moveto 1 index 0 rlineto 0 exch rlineto
	neg 0 rlineto closepath} bind def
/Square {dup Rec} bind def
/Bsquare {vpt sub exch vpt sub exch vpt2 Square} bind def
/S0 {BL [] 0 setdash 2 copy moveto 0 vpt rlineto BL Bsquare} bind def
/S1 {BL [] 0 setdash 2 copy vpt Square fill Bsquare} bind def
/S2 {BL [] 0 setdash 2 copy exch vpt sub exch vpt Square fill Bsquare} bind def
/S3 {BL [] 0 setdash 2 copy exch vpt sub exch vpt2 vpt Rec fill Bsquare} bind def
/S4 {BL [] 0 setdash 2 copy exch vpt sub exch vpt sub vpt Square fill Bsquare} bind def
/S5 {BL [] 0 setdash 2 copy 2 copy vpt Square fill
	exch vpt sub exch vpt sub vpt Square fill Bsquare} bind def
/S6 {BL [] 0 setdash 2 copy exch vpt sub exch vpt sub vpt vpt2 Rec fill Bsquare} bind def
/S7 {BL [] 0 setdash 2 copy exch vpt sub exch vpt sub vpt vpt2 Rec fill
	2 copy vpt Square fill Bsquare} bind def
/S8 {BL [] 0 setdash 2 copy vpt sub vpt Square fill Bsquare} bind def
/S9 {BL [] 0 setdash 2 copy vpt sub vpt vpt2 Rec fill Bsquare} bind def
/S10 {BL [] 0 setdash 2 copy vpt sub vpt Square fill 2 copy exch vpt sub exch vpt Square fill
	Bsquare} bind def
/S11 {BL [] 0 setdash 2 copy vpt sub vpt Square fill 2 copy exch vpt sub exch vpt2 vpt Rec fill
	Bsquare} bind def
/S12 {BL [] 0 setdash 2 copy exch vpt sub exch vpt sub vpt2 vpt Rec fill Bsquare} bind def
/S13 {BL [] 0 setdash 2 copy exch vpt sub exch vpt sub vpt2 vpt Rec fill
	2 copy vpt Square fill Bsquare} bind def
/S14 {BL [] 0 setdash 2 copy exch vpt sub exch vpt sub vpt2 vpt Rec fill
	2 copy exch vpt sub exch vpt Square fill Bsquare} bind def
/S15 {BL [] 0 setdash 2 copy Bsquare fill Bsquare} bind def
/D0 {gsave translate 45 rotate 0 0 S0 stroke grestore} bind def
/D1 {gsave translate 45 rotate 0 0 S1 stroke grestore} bind def
/D2 {gsave translate 45 rotate 0 0 S2 stroke grestore} bind def
/D3 {gsave translate 45 rotate 0 0 S3 stroke grestore} bind def
/D4 {gsave translate 45 rotate 0 0 S4 stroke grestore} bind def
/D5 {gsave translate 45 rotate 0 0 S5 stroke grestore} bind def
/D6 {gsave translate 45 rotate 0 0 S6 stroke grestore} bind def
/D7 {gsave translate 45 rotate 0 0 S7 stroke grestore} bind def
/D8 {gsave translate 45 rotate 0 0 S8 stroke grestore} bind def
/D9 {gsave translate 45 rotate 0 0 S9 stroke grestore} bind def
/D10 {gsave translate 45 rotate 0 0 S10 stroke grestore} bind def
/D11 {gsave translate 45 rotate 0 0 S11 stroke grestore} bind def
/D12 {gsave translate 45 rotate 0 0 S12 stroke grestore} bind def
/D13 {gsave translate 45 rotate 0 0 S13 stroke grestore} bind def
/D14 {gsave translate 45 rotate 0 0 S14 stroke grestore} bind def
/D15 {gsave translate 45 rotate 0 0 S15 stroke grestore} bind def
/DiaE {stroke [] 0 setdash vpt add M
  hpt neg vpt neg V hpt vpt neg V
  hpt vpt V hpt neg vpt V closepath stroke} def
/BoxE {stroke [] 0 setdash exch hpt sub exch vpt add M
  0 vpt2 neg V hpt2 0 V 0 vpt2 V
  hpt2 neg 0 V closepath stroke} def
/TriUE {stroke [] 0 setdash vpt 1.12 mul add M
  hpt neg vpt -1.62 mul V
  hpt 2 mul 0 V
  hpt neg vpt 1.62 mul V closepath stroke} def
/TriDE {stroke [] 0 setdash vpt 1.12 mul sub M
  hpt neg vpt 1.62 mul V
  hpt 2 mul 0 V
  hpt neg vpt -1.62 mul V closepath stroke} def
/PentE {stroke [] 0 setdash gsave
  translate 0 hpt M 4 {72 rotate 0 hpt L} repeat
  closepath stroke grestore} def
/CircE {stroke [] 0 setdash 
  hpt 0 360 arc stroke} def
/Opaque {gsave closepath 1 setgray fill grestore 0 setgray closepath} def
/DiaW {stroke [] 0 setdash vpt add M
  hpt neg vpt neg V hpt vpt neg V
  hpt vpt V hpt neg vpt V Opaque stroke} def
/BoxW {stroke [] 0 setdash exch hpt sub exch vpt add M
  0 vpt2 neg V hpt2 0 V 0 vpt2 V
  hpt2 neg 0 V Opaque stroke} def
/TriUW {stroke [] 0 setdash vpt 1.12 mul add M
  hpt neg vpt -1.62 mul V
  hpt 2 mul 0 V
  hpt neg vpt 1.62 mul V Opaque stroke} def
/TriDW {stroke [] 0 setdash vpt 1.12 mul sub M
  hpt neg vpt 1.62 mul V
  hpt 2 mul 0 V
  hpt neg vpt -1.62 mul V Opaque stroke} def
/PentW {stroke [] 0 setdash gsave
  translate 0 hpt M 4 {72 rotate 0 hpt L} repeat
  Opaque stroke grestore} def
/CircW {stroke [] 0 setdash 
  hpt 0 360 arc Opaque stroke} def
/BoxFill {gsave Rec 1 setgray fill grestore} def
/Density {
  /Fillden exch def
  currentrgbcolor
  /ColB exch def /ColG exch def /ColR exch def
  /ColR ColR Fillden mul Fillden sub 1 add def
  /ColG ColG Fillden mul Fillden sub 1 add def
  /ColB ColB Fillden mul Fillden sub 1 add def
  ColR ColG ColB setrgbcolor} def
/BoxColFill {gsave Rec PolyFill} def
/PolyFill {gsave Density fill grestore grestore} def
/h {rlineto rlineto rlineto gsave closepath fill grestore} bind def
%
% PostScript Level 1 Pattern Fill routine for rectangles
% Usage: x y w h s a XX PatternFill
%	x,y = lower left corner of box to be filled
%	w,h = width and height of box
%	  a = angle in degrees between lines and x-axis
%	 XX = 0/1 for no/yes cross-hatch
%
/PatternFill {gsave /PFa [ 9 2 roll ] def
  PFa 0 get PFa 2 get 2 div add PFa 1 get PFa 3 get 2 div add translate
  PFa 2 get -2 div PFa 3 get -2 div PFa 2 get PFa 3 get Rec
  TransparentPatterns {} {gsave 1 setgray fill grestore} ifelse
  clip
  currentlinewidth 0.5 mul setlinewidth
  /PFs PFa 2 get dup mul PFa 3 get dup mul add sqrt def
  0 0 M PFa 5 get rotate PFs -2 div dup translate
  0 1 PFs PFa 4 get div 1 add floor cvi
	{PFa 4 get mul 0 M 0 PFs V} for
  0 PFa 6 get ne {
	0 1 PFs PFa 4 get div 1 add floor cvi
	{PFa 4 get mul 0 2 1 roll M PFs 0 V} for
 } if
  stroke grestore} def
%
/languagelevel where
 {pop languagelevel} {1} ifelse
 2 lt
	{/InterpretLevel1 true def}
	{/InterpretLevel1 Level1 def}
 ifelse
%
% PostScript level 2 pattern fill definitions
%
/Level2PatternFill {
/Tile8x8 {/PaintType 2 /PatternType 1 /TilingType 1 /BBox [0 0 8 8] /XStep 8 /YStep 8}
	bind def
/KeepColor {currentrgbcolor [/Pattern /DeviceRGB] setcolorspace} bind def
<< Tile8x8
 /PaintProc {0.5 setlinewidth pop 0 0 M 8 8 L 0 8 M 8 0 L stroke} 
>> matrix makepattern
/Pat1 exch def
<< Tile8x8
 /PaintProc {0.5 setlinewidth pop 0 0 M 8 8 L 0 8 M 8 0 L stroke
	0 4 M 4 8 L 8 4 L 4 0 L 0 4 L stroke}
>> matrix makepattern
/Pat2 exch def
<< Tile8x8
 /PaintProc {0.5 setlinewidth pop 0 0 M 0 8 L
	8 8 L 8 0 L 0 0 L fill}
>> matrix makepattern
/Pat3 exch def
<< Tile8x8
 /PaintProc {0.5 setlinewidth pop -4 8 M 8 -4 L
	0 12 M 12 0 L stroke}
>> matrix makepattern
/Pat4 exch def
<< Tile8x8
 /PaintProc {0.5 setlinewidth pop -4 0 M 8 12 L
	0 -4 M 12 8 L stroke}
>> matrix makepattern
/Pat5 exch def
<< Tile8x8
 /PaintProc {0.5 setlinewidth pop -2 8 M 4 -4 L
	0 12 M 8 -4 L 4 12 M 10 0 L stroke}
>> matrix makepattern
/Pat6 exch def
<< Tile8x8
 /PaintProc {0.5 setlinewidth pop -2 0 M 4 12 L
	0 -4 M 8 12 L 4 -4 M 10 8 L stroke}
>> matrix makepattern
/Pat7 exch def
<< Tile8x8
 /PaintProc {0.5 setlinewidth pop 8 -2 M -4 4 L
	12 0 M -4 8 L 12 4 M 0 10 L stroke}
>> matrix makepattern
/Pat8 exch def
<< Tile8x8
 /PaintProc {0.5 setlinewidth pop 0 -2 M 12 4 L
	-4 0 M 12 8 L -4 4 M 8 10 L stroke}
>> matrix makepattern
/Pat9 exch def
/Pattern1 {PatternBgnd KeepColor Pat1 setpattern} bind def
/Pattern2 {PatternBgnd KeepColor Pat2 setpattern} bind def
/Pattern3 {PatternBgnd KeepColor Pat3 setpattern} bind def
/Pattern4 {PatternBgnd KeepColor Landscape {Pat5} {Pat4} ifelse setpattern} bind def
/Pattern5 {PatternBgnd KeepColor Landscape {Pat4} {Pat5} ifelse setpattern} bind def
/Pattern6 {PatternBgnd KeepColor Landscape {Pat9} {Pat6} ifelse setpattern} bind def
/Pattern7 {PatternBgnd KeepColor Landscape {Pat8} {Pat7} ifelse setpattern} bind def
} def
%
%
%End of PostScript Level 2 code
%
/PatternBgnd {
  TransparentPatterns {} {gsave 1 setgray fill grestore} ifelse
} def
%
% Substitute for Level 2 pattern fill codes with
% grayscale if Level 2 support is not selected.
%
/Level1PatternFill {
/Pattern1 {0.250 Density} bind def
/Pattern2 {0.500 Density} bind def
/Pattern3 {0.750 Density} bind def
/Pattern4 {0.125 Density} bind def
/Pattern5 {0.375 Density} bind def
/Pattern6 {0.625 Density} bind def
/Pattern7 {0.875 Density} bind def
} def
%
% Now test for support of Level 2 code
%
Level1 {Level1PatternFill} {Level2PatternFill} ifelse
%
/Symbol-Oblique /Symbol findfont [1 0 .167 1 0 0] makefont
dup length dict begin {1 index /FID eq {pop pop} {def} ifelse} forall
currentdict end definefont pop
/MFshow {
   { dup 5 get 3 ge
     { 5 get 3 eq {gsave} {grestore} ifelse }
     {dup dup 0 get findfont exch 1 get scalefont setfont
     [ currentpoint ] exch dup 2 get 0 exch R dup 5 get 2 ne {dup dup 6
     get exch 4 get {Gshow} {stringwidth pop 0 R} ifelse }if dup 5 get 0 eq
     {dup 3 get {2 get neg 0 exch R pop} {pop aload pop M} ifelse} {dup 5
     get 1 eq {dup 2 get exch dup 3 get exch 6 get stringwidth pop -2 div
     dup 0 R} {dup 6 get stringwidth pop -2 div 0 R 6 get
     show 2 index {aload pop M neg 3 -1 roll neg R pop pop} {pop pop pop
     pop aload pop M} ifelse }ifelse }ifelse }
     ifelse }
   forall} def
/Gswidth {dup type /stringtype eq {stringwidth} {pop (n) stringwidth} ifelse} def
/MFwidth {0 exch { dup 5 get 3 ge { 5 get 3 eq { 0 } { pop } ifelse }
 {dup 3 get{dup dup 0 get findfont exch 1 get scalefont setfont
     6 get Gswidth pop add} {pop} ifelse} ifelse} forall} def
/MLshow { currentpoint stroke M
  0 exch R
  Blacktext {gsave 0 setgray MFshow grestore} {MFshow} ifelse } bind def
/MRshow { currentpoint stroke M
  exch dup MFwidth neg 3 -1 roll R
  Blacktext {gsave 0 setgray MFshow grestore} {MFshow} ifelse } bind def
/MCshow { currentpoint stroke M
  exch dup MFwidth -2 div 3 -1 roll R
  Blacktext {gsave 0 setgray MFshow grestore} {MFshow} ifelse } bind def
/XYsave    { [( ) 1 2 true false 3 ()] } bind def
/XYrestore { [( ) 1 2 true false 4 ()] } bind def
Level1 SuppressPDFMark or 
{} {
/SDict 10 dict def
systemdict /pdfmark known not {
  userdict /pdfmark systemdict /cleartomark get put
} if
SDict begin [
  /Title (beta_matched.eps)
  /Subject (gnuplot plot)
  /Creator (gnuplot 4.6 patchlevel 2)
  /Author (cbracco)
%  /Producer (gnuplot)
%  /Keywords ()
  /CreationDate (Tue Aug 11 16:33:52 2020)
  /DOCINFO pdfmark
end
} ifelse
end
%%EndProlog
%%Page: 1 1
gnudict begin
gsave
doclip
50 50 translate
0.050 0.050 scale
0 setgray
newpath
(Helvetica) findfont 120 scalefont setfont
BackgroundColor 0 lt 3 1 roll 0 lt exch 0 lt or or not {BackgroundColor C 1.000 0 0 4320.00 3024.00 BoxColFill} if
1.000 UL
LTb
LCb setrgbcolor
1.000 UL
LTa
LCa setrgbcolor
516 384 M
3587 0 V
stroke
LTb
LCb setrgbcolor
516 384 M
63 0 V
3524 0 R
-63 0 V
stroke
444 384 M
[ [(Helvetica) 120.0 0.0 true true 0 ( 0)]
] -40.0 MRshow
1.000 UL
LTb
LCb setrgbcolor
1.000 UL
LTa
LCa setrgbcolor
516 740 M
3587 0 V
stroke
LTb
LCb setrgbcolor
516 740 M
63 0 V
3524 0 R
-63 0 V
stroke
444 740 M
[ [(Helvetica) 120.0 0.0 true true 0 ( 5)]
] -40.0 MRshow
1.000 UL
LTb
LCb setrgbcolor
1.000 UL
LTa
LCa setrgbcolor
516 1097 M
3587 0 V
stroke
LTb
LCb setrgbcolor
516 1097 M
63 0 V
3524 0 R
-63 0 V
stroke
444 1097 M
[ [(Helvetica) 120.0 0.0 true true 0 ( 10)]
] -40.0 MRshow
1.000 UL
LTb
LCb setrgbcolor
1.000 UL
LTa
LCa setrgbcolor
516 1453 M
3587 0 V
stroke
LTb
LCb setrgbcolor
516 1453 M
63 0 V
3524 0 R
-63 0 V
stroke
444 1453 M
[ [(Helvetica) 120.0 0.0 true true 0 ( 15)]
] -40.0 MRshow
1.000 UL
LTb
LCb setrgbcolor
1.000 UL
LTa
LCa setrgbcolor
516 1810 M
3587 0 V
stroke
LTb
LCb setrgbcolor
516 1810 M
63 0 V
3524 0 R
-63 0 V
stroke
444 1810 M
[ [(Helvetica) 120.0 0.0 true true 0 ( 20)]
] -40.0 MRshow
1.000 UL
LTb
LCb setrgbcolor
1.000 UL
LTa
LCa setrgbcolor
516 2166 M
3587 0 V
stroke
LTb
LCb setrgbcolor
516 2166 M
63 0 V
3524 0 R
-63 0 V
stroke
444 2166 M
[ [(Helvetica) 120.0 0.0 true true 0 ( 25)]
] -40.0 MRshow
1.000 UL
LTb
LCb setrgbcolor
1.000 UL
LTa
LCa setrgbcolor
516 2523 M
2516 0 V
999 0 R
72 0 V
stroke
LTb
LCb setrgbcolor
516 2523 M
63 0 V
3524 0 R
-63 0 V
stroke
444 2523 M
[ [(Helvetica) 120.0 0.0 true true 0 ( 30)]
] -40.0 MRshow
1.000 UL
LTb
LCb setrgbcolor
1.000 UL
LTa
LCa setrgbcolor
516 2879 M
3587 0 V
stroke
LTb
LCb setrgbcolor
516 2879 M
63 0 V
3524 0 R
-63 0 V
stroke
444 2879 M
[ [(Helvetica) 120.0 0.0 true true 0 ( 35)]
] -40.0 MRshow
1.000 UL
LTb
LCb setrgbcolor
1.000 UL
LTa
LCa setrgbcolor
516 384 M
0 2495 V
stroke
LTb
LCb setrgbcolor
516 384 M
0 63 V
0 2432 R
0 -63 V
stroke
516 264 M
[ [(Helvetica) 120.0 0.0 true true 0 ( 0)]
] -40.0 MCshow
1.000 UL
LTb
LCb setrgbcolor
1.000 UL
LTa
LCa setrgbcolor
1370 384 M
0 2495 V
stroke
LTb
LCb setrgbcolor
1370 384 M
0 63 V
0 2432 R
0 -63 V
stroke
1370 264 M
[ [(Helvetica) 120.0 0.0 true true 0 ( 50)]
] -40.0 MCshow
1.000 UL
LTb
LCb setrgbcolor
1.000 UL
LTa
LCa setrgbcolor
2224 384 M
0 2495 V
stroke
LTb
LCb setrgbcolor
2224 384 M
0 63 V
0 2432 R
0 -63 V
stroke
2224 264 M
[ [(Helvetica) 120.0 0.0 true true 0 ( 100)]
] -40.0 MCshow
1.000 UL
LTb
LCb setrgbcolor
1.000 UL
LTa
LCa setrgbcolor
3078 384 M
0 1952 V
0 480 R
0 63 V
stroke
LTb
LCb setrgbcolor
3078 384 M
0 63 V
0 2432 R
0 -63 V
stroke
3078 264 M
[ [(Helvetica) 120.0 0.0 true true 0 ( 150)]
] -40.0 MCshow
1.000 UL
LTb
LCb setrgbcolor
1.000 UL
LTa
LCa setrgbcolor
3932 384 M
0 1952 V
0 480 R
0 63 V
stroke
LTb
LCb setrgbcolor
3932 384 M
0 63 V
0 2432 R
0 -63 V
stroke
3932 264 M
[ [(Helvetica) 120.0 0.0 true true 0 ( 200)]
] -40.0 MCshow
1.000 UL
LTb
LCb setrgbcolor
1.000 UL
LTb
LCb setrgbcolor
516 2879 N
516 384 L
3587 0 V
0 2495 V
-3587 0 V
Z stroke
LCb setrgbcolor
96 1631 M
currentpoint gsave translate -270 rotate 0 0 moveto
[ [(Helvetica) 120.0 0.0 true true 0 (betx [m])]
] -40.0 MCshow
grestore
LTb
LCb setrgbcolor
2309 84 M
[ [(Helvetica) 120.0 0.0 true true 0 (s [m])]
] -40.0 MCshow
LTb
1.000 UP
1.000 UL
LTb
LCb setrgbcolor
% Begin plot #1
1.000 UL
LT0
LC0 setrgbcolor
LCb setrgbcolor
3536 2756 M
[ [(Helvetica) 120.0 0.0 true true 0 (BI1PSB1)]
] -40.0 MRshow
LT0
3608 2756 M
351 0 V
516 1284 M
4 -30 V
20 -137 V
634 862 L
9 9 V
15 30 V
78 418 V
5 48 V
5 45 V
5 41 V
8 -89 V
9 -269 V
8 -95 V
117 419 V
8 55 V
6 49 V
1 11 V
6 40 V
4 34 V
9 78 V
8 -43 V
7 -144 V
7 -122 V
8 -62 V
2 3 V
2 2 V
7 8 V
7 10 V
7 12 V
7 14 V
7 15 V
2 5 V
1 1 V
5 14 V
84 354 V
12 71 V
16 102 V
16 108 V
51 373 V
12 -14 V
5 -6 V
8 -365 V
5 -415 V
8 -315 V
6 -64 V
9 -102 V
23 -202 V
13 -86 V
8 -41 V
6 -28 V
11 -40 V
40 -30 V
6 12 V
2 5 V
1 3 V
6 16 V
6 24 V
6 24 V
0 3 V
2 5 V
2 11 V
27 184 V
5 35 V
2 19 V
8 -49 V
6 -102 V
5 -92 V
15 18 V
3 45 V
6 131 V
3 56 V
8 70 V
3 -22 V
3 -26 V
28 -171 V
16 -65 V
1 -6 V
10 -27 V
6 -14 V
12 -16 V
28 13 V
6 12 V
9 -54 V
6 -73 V
5 -62 V
15 -2 V
6 59 V
5 70 V
9 52 V
6 -14 V
28 -15 V
9 11 V
9 19 V
7 18 V
10 36 V
10 47 V
28 173 V
6 50 V
9 -68 V
5 -120 V
6 -107 V
15 -10 V
5 98 V
6 109 V
9 55 V
6 -53 V
28 -182 V
6 -30 V
stroke 1832 802 M
9 -37 V
21 -49 V
9 -7 V
27 33 V
7 18 V
8 -40 V
6 -61 V
5 -53 V
16 22 V
5 73 V
6 86 V
8 67 V
3 -6 V
4 -6 V
27 -16 V
4 3 V
17 24 V
2 4 V
16 47 V
7 27 V
27 142 V
6 41 V
9 -80 V
6 -126 V
5 -111 V
15 -34 V
3 39 V
8 129 V
9 37 V
6 -51 V
28 -169 V
6 -26 V
39 -50 V
28 77 V
6 31 V
9 -29 V
5 -59 V
6 -51 V
15 42 V
5 92 V
6 108 V
9 81 V
6 -17 V
28 -44 V
4 -2 V
16 2 V
2 2 V
16 22 V
7 15 V
28 91 V
6 28 V
8 -86 V
6 -122 V
6 -106 V
15 -47 V
5 61 V
6 69 V
8 28 V
7 -43 V
27 -129 V
6 -15 V
9 -14 V
6 -3 V
9 3 V
2 2 V
6 9 V
2 5 V
2 6 V
4 8 V
27 130 V
6 43 V
9 -27 V
6 -70 V
5 -61 V
15 46 V
5 96 V
3 62 V
3 72 V
9 86 V
6 -28 V
28 -93 V
7 -15 V
8 -14 V
5 -7 V
16 -9 V
9 3 V
28 43 V
6 17 V
9 -81 V
5 -107 V
6 -92 V
15 -41 V
6 51 V
5 59 V
9 28 V
6 -30 V
28 -76 V
45 78 V
28 169 V
6 52 V
8 -38 V
6 -89 V
6 -79 V
15 33 V
stroke 2946 798 M
5 111 V
6 127 V
8 79 V
7 -41 V
27 -144 V
5 -20 V
20 -59 V
12 -20 V
9 -7 V
27 15 V
1 1 V
6 11 V
8 -66 V
6 -86 V
5 -73 V
15 -20 V
6 52 V
6 63 V
8 40 V
6 -18 V
28 -32 V
5 3 V
21 41 V
10 35 V
9 44 V
28 182 V
6 52 V
9 -55 V
5 -110 V
6 -97 V
15 6 V
6 104 V
5 117 V
9 64 V
6 -51 V
28 -177 V
4 -20 V
16 -63 V
2 -5 V
16 -34 V
7 -7 V
28 20 V
6 15 V
9 -48 V
5 -67 V
6 -57 V
15 9 V
5 65 V
6 77 V
9 58 V
6 -12 V
27 -13 V
6 5 V
3 5 V
35 102 V
2 10 V
27 161 V
2 12 V
5 33 V
8 -73 V
6 -124 V
5 -109 V
15 -20 V
2 31 V
1 10 V
8 140 V
1 10 V
8 48 V
6 -53 V
28 -177 V
4 -19 V
1 -3 V
5 -20 V
16 -47 V
6 -10 V
5 -6 V
7 -2 V
1 1 V
28 49 V
6 23 V
9 -35 V
6 -60 V
5 -52 V
15 30 V
2 24 V
8 126 V
1 25 V
9 72 V
6 -13 V
28 -26 V
6 2 V
7 6 V
6 8 V
15 30 V
11 34 V
28 124 V
6 36 V
9 -83 V
5 -125 V
6 -109 V
15 -40 V
2 30 V
7 86 V
2 36 V
stroke 3963 890 M
9 33 V
2 -17 V
4 -32 V
28 -154 V
3 -11 V
5 -17 V
6 -16 V
6 -9 V
2 -2 V
% End plot #1
% Begin plot #2
stroke
LT1
LC1 setrgbcolor
LCb setrgbcolor
3536 2636 M
[ [(Helvetica) 120.0 0.0 true true 0 (BI2PSB2)]
] -40.0 MRshow
LT1
3608 2636 M
351 0 V
516 1284 M
4 -30 V
20 -137 V
634 862 L
9 9 V
15 30 V
78 418 V
5 48 V
5 45 V
5 41 V
8 -89 V
9 -269 V
8 -95 V
117 419 V
8 55 V
6 49 V
1 11 V
6 40 V
4 34 V
9 78 V
8 -43 V
7 -144 V
7 -122 V
8 -62 V
2 3 V
2 2 V
7 8 V
7 10 V
7 12 V
7 14 V
7 15 V
2 5 V
1 1 V
5 14 V
84 355 V
12 70 V
39 269 V
16 132 V
27 242 V
12 44 V
6 20 V
7 -372 V
6 -444 V
7 -335 V
6 -65 V
10 -104 V
23 -208 V
13 -92 V
8 -46 V
6 -32 V
10 -47 V
41 -69 V
5 4 V
3 3 V
1 1 V
5 10 V
7 14 V
5 16 V
1 2 V
1 4 V
2 8 V
28 140 V
4 28 V
2 15 V
9 -48 V
5 -93 V
6 -81 V
15 12 V
2 39 V
7 114 V
2 48 V
9 64 V
2 -18 V
4 -21 V
28 -131 V
15 -44 V
2 -3 V
9 -14 V
6 -6 V
13 0 V
28 47 V
6 20 V
8 -55 V
6 -80 V
6 -69 V
15 -5 V
5 65 V
6 75 V
8 50 V
7 -22 V
27 -50 V
9 -2 V
10 7 V
6 10 V
10 22 V
11 34 V
27 137 V
6 41 V
9 -58 V
6 -103 V
5 -90 V
15 -2 V
6 89 V
5 102 V
9 56 V
6 -42 V
28 -138 V
6 -22 V
stroke 1831 797 M
9 -24 V
14 -22 V
16 -3 V
28 54 V
6 22 V
9 -48 V
5 -74 V
6 -63 V
15 7 V
6 71 V
5 82 V
9 57 V
3 -9 V
3 -11 V
28 -48 V
4 -1 V
16 8 V
2 2 V
16 34 V
7 21 V
28 125 V
6 38 V
8 -65 V
6 -107 V
6 -94 V
15 -14 V
2 39 V
9 131 V
8 46 V
7 -42 V
27 -137 V
7 -20 V
39 -31 V
27 74 V
7 29 V
8 -41 V
6 -70 V
5 -61 V
15 20 V
6 81 V
6 94 V
8 66 V
6 -22 V
28 -58 V
4 -4 V
16 -1 V
2 1 V
16 22 V
7 15 V
28 100 V
6 30 V
9 -70 V
5 -106 V
6 -94 V
15 -24 V
6 70 V
5 79 V
9 40 V
6 -39 V
28 -119 V
6 -15 V
9 -14 V
6 -5 V
9 0 V
1 1 V
6 6 V
2 4 V
3 4 V
3 6 V
28 104 V
6 35 V
9 -38 V
5 -74 V
6 -65 V
15 26 V
5 81 V
3 52 V
3 61 V
8 70 V
7 -27 V
27 -83 V
7 -11 V
14 -13 V
6 -1 V
9 4 V
10 11 V
27 71 V
7 24 V
8 -69 V
6 -100 V
5 -86 V
15 -25 V
6 63 V
6 72 V
8 38 V
6 -32 V
28 -91 V
45 31 V
28 128 V
6 41 V
9 -42 V
5 -84 V
6 -73 V
15 21 V
stroke 2945 739 M
6 94 V
5 108 V
9 68 V
6 -34 V
28 -111 V
5 -14 V
12 -25 V
8 -9 V
20 -2 V
28 52 V
0 1 V
6 19 V
9 -62 V
5 -89 V
6 -76 V
15 -16 V
5 62 V
6 71 V
9 43 V
6 -25 V
27 -64 V
6 -3 V
21 13 V
9 22 V
10 31 V
27 139 V
7 43 V
8 -51 V
6 -95 V
5 -84 V
15 8 V
6 92 V
6 105 V
8 61 V
7 -40 V
27 -134 V
4 -14 V
17 -40 V
1 -3 V
17 -14 V
7 2 V
27 48 V
6 21 V
9 -52 V
6 -78 V
5 -67 V
15 0 V
6 67 V
5 78 V
9 52 V
6 -21 V
28 -49 V
5 -2 V
4 1 V
34 63 V
2 8 V
28 133 V
2 11 V
4 29 V
9 -61 V
5 -104 V
6 -92 V
15 -6 V
2 30 V
0 7 V
8 136 V
1 12 V
9 54 V
6 -43 V
28 -138 V
3 -13 V
1 -3 V
5 -14 V
16 -32 V
6 -5 V
6 -2 V
6 2 V
2 2 V
28 59 V
6 24 V
8 -46 V
6 -73 V
6 -62 V
15 11 V
1 19 V
8 115 V
2 25 V
8 60 V
7 -21 V
27 -50 V
6 -3 V
7 1 V
7 4 V
14 23 V
12 30 V
27 119 V
6 36 V
9 -67 V
6 -107 V
5 -94 V
15 -18 V
3 32 V
6 93 V
2 39 V
stroke 3962 889 M
9 44 V
2 -14 V
4 -27 V
28 -133 V
3 -10 V
5 -14 V
7 -14 V
5 -8 V
3 -2 V
% End plot #2
% Begin plot #3
stroke
LT2
LC2 setrgbcolor
LCb setrgbcolor
3536 2516 M
[ [(Helvetica) 120.0 0.0 true true 0 (BI3PSB3)]
] -40.0 MRshow
LT2
3608 2516 M
351 0 V
516 1284 M
4 -30 V
20 -137 V
634 862 L
9 9 V
15 30 V
78 418 V
5 48 V
5 45 V
5 41 V
8 -89 V
9 -269 V
8 -95 V
117 419 V
8 55 V
6 49 V
1 11 V
6 40 V
4 34 V
9 78 V
8 -43 V
7 -144 V
7 -122 V
8 -62 V
2 3 V
2 2 V
7 8 V
7 10 V
7 12 V
7 14 V
7 15 V
2 5 V
1 1 V
5 14 V
84 355 V
12 71 V
10 61 V
29 208 V
16 131 V
3 26 V
24 210 V
12 118 V
5 53 V
8 -365 V
5 -464 V
8 -351 V
6 -68 V
9 -109 V
24 -221 V
13 -99 V
7 -51 V
6 -35 V
11 -54 V
40 -94 V
6 0 V
2 1 V
1 1 V
6 5 V
6 10 V
6 13 V
0 1 V
2 3 V
2 7 V
27 119 V
5 25 V
2 13 V
8 -46 V
6 -86 V
6 -75 V
15 14 V
2 37 V
6 108 V
3 45 V
8 64 V
3 -16 V
4 -18 V
27 -110 V
16 -33 V
2 -2 V
9 -8 V
6 -2 V
13 7 V
27 63 V
6 23 V
9 -58 V
6 -87 V
5 -75 V
15 -9 V
6 66 V
5 77 V
9 47 V
6 -26 V
28 -70 V
9 -7 V
10 1 V
6 6 V
10 17 V
10 28 V
28 125 V
6 39 V
9 -53 V
5 -93 V
6 -83 V
15 6 V
6 89 V
5 101 V
9 60 V
6 -37 V
stroke 1797 948 M
28 -120 V
6 -18 V
9 -20 V
7 -11 V
14 -6 V
9 4 V
28 59 V
6 23 V
8 -54 V
6 -81 V
6 -70 V
15 -3 V
5 68 V
6 79 V
8 51 V
3 -11 V
4 -13 V
27 -61 V
5 -3 V
16 3 V
2 2 V
16 30 V
7 20 V
27 125 V
7 38 V
8 -57 V
6 -99 V
5 -87 V
15 -4 V
3 41 V
8 138 V
9 53 V
6 -40 V
28 -127 V
6 -19 V
39 -31 V
28 68 V
6 26 V
9 -47 V
5 -76 V
6 -65 V
15 9 V
6 74 V
5 87 V
9 58 V
6 -22 V
28 -61 V
4 -3 V
16 0 V
2 2 V
16 25 V
7 17 V
28 111 V
6 34 V
9 -64 V
5 -102 V
6 -89 V
15 -14 V
5 76 V
6 86 V
8 46 V
7 -39 V
27 -121 V
7 -17 V
8 -17 V
6 -6 V
9 -4 V
2 1 V
6 3 V
2 2 V
2 3 V
4 5 V
27 86 V
7 31 V
8 -42 V
6 -75 V
5 -66 V
15 18 V
5 74 V
3 48 V
4 55 V
8 64 V
6 -25 V
28 -72 V
7 -8 V
8 -6 V
5 0 V
16 11 V
9 17 V
28 89 V
6 29 V
9 -66 V
5 -100 V
6 -87 V
15 -19 V
6 68 V
5 79 V
9 42 V
6 -35 V
28 -104 V
45 2 V
28 107 V
6 36 V
9 -42 V
stroke 2919 842 M
5 -80 V
6 -70 V
15 19 V
5 88 V
6 101 V
9 66 V
6 -30 V
27 -92 V
6 -11 V
19 -20 V
12 3 V
9 9 V
27 70 V
1 2 V
6 22 V
8 -63 V
6 -94 V
5 -81 V
15 -16 V
6 65 V
6 75 V
8 42 V
7 -30 V
27 -83 V
5 -7 V
21 0 V
10 15 V
9 25 V
28 123 V
6 39 V
9 -47 V
6 -87 V
5 -77 V
15 13 V
6 89 V
5 102 V
9 63 V
6 -35 V
28 -113 V
4 -11 V
16 -30 V
2 -2 V
16 -5 V
7 4 V
28 60 V
6 22 V
9 -57 V
5 -85 V
6 -73 V
15 -8 V
5 66 V
6 76 V
9 48 V
6 -25 V
28 -66 V
5 -4 V
3 -2 V
35 50 V
2 6 V
27 128 V
2 10 V
5 29 V
8 -54 V
6 -96 V
6 -84 V
15 4 V
2 31 V
0 9 V
8 139 V
1 10 V
8 59 V
7 -38 V
27 -124 V
4 -12 V
1 -2 V
5 -13 V
16 -27 V
6 -4 V
6 0 V
6 2 V
2 2 V
27 58 V
6 23 V
9 -52 V
6 -80 V
5 -68 V
15 0 V
2 20 V
8 107 V
1 22 V
9 52 V
6 -23 V
28 -58 V
6 -4 V
7 0 V
6 4 V
15 22 V
11 31 V
28 125 V
6 38 V
9 -59 V
5 -101 V
6 -89 V
15 -6 V
stroke 3951 732 M
2 34 V
7 99 V
2 42 V
9 51 V
2 -14 V
4 -26 V
28 -130 V
3 -9 V
5 -15 V
6 -14 V
6 -9 V
2 -2 V
0 -1 V
% End plot #3
% Begin plot #4
stroke
LT3
LC3 setrgbcolor
LCb setrgbcolor
3536 2396 M
[ [(Helvetica) 120.0 0.0 true true 0 (BI4PSB4)]
] -40.0 MRshow
LT3
3608 2396 M
351 0 V
516 1284 M
4 -30 V
20 -137 V
634 862 L
9 9 V
15 30 V
78 418 V
5 48 V
5 45 V
5 41 V
8 -89 V
9 -269 V
8 -95 V
117 419 V
8 55 V
6 49 V
1 11 V
6 40 V
4 34 V
9 78 V
8 -43 V
7 -144 V
7 -122 V
8 -62 V
2 3 V
2 2 V
7 8 V
7 10 V
7 12 V
7 14 V
7 15 V
2 5 V
1 1 V
5 14 V
84 356 V
12 70 V
39 270 V
16 132 V
27 242 V
12 44 V
6 20 V
7 -372 V
6 -445 V
7 -336 V
6 -65 V
10 -104 V
23 -208 V
13 -92 V
8 -46 V
6 -32 V
10 -48 V
41 -68 V
5 4 V
3 2 V
0 1 V
1 1 V
5 9 V
7 15 V
5 16 V
1 2 V
1 4 V
2 8 V
28 139 V
4 28 V
2 15 V
9 -47 V
5 -93 V
6 -81 V
15 13 V
2 39 V
7 113 V
2 48 V
9 64 V
2 -18 V
4 -21 V
28 -130 V
15 -44 V
2 -3 V
9 -15 V
6 -5 V
13 -1 V
28 47 V
6 20 V
8 -55 V
6 -80 V
6 -69 V
15 -5 V
5 64 V
6 76 V
8 49 V
7 -21 V
27 -51 V
9 -1 V
10 7 V
6 9 V
10 23 V
11 34 V
27 137 V
6 41 V
9 -58 V
6 -103 V
5 -90 V
15 -1 V
6 89 V
5 102 V
9 56 V
6 -42 V
28 -139 V
stroke 1825 819 M
6 -21 V
9 -25 V
14 -22 V
16 -2 V
28 53 V
6 22 V
9 -48 V
5 -74 V
6 -64 V
15 7 V
6 71 V
5 82 V
9 57 V
3 -9 V
3 -11 V
28 -47 V
4 -2 V
16 9 V
2 2 V
16 34 V
7 21 V
28 126 V
6 37 V
8 -64 V
6 -107 V
6 -94 V
15 -15 V
2 39 V
9 132 V
8 46 V
7 -42 V
27 -138 V
7 -20 V
39 -32 V
27 75 V
7 28 V
8 -40 V
6 -71 V
5 -61 V
15 21 V
6 81 V
6 94 V
8 66 V
6 -22 V
28 -58 V
4 -4 V
16 -1 V
2 2 V
16 21 V
7 16 V
28 99 V
6 31 V
9 -70 V
5 -107 V
6 -93 V
15 -24 V
6 69 V
5 80 V
9 39 V
6 -39 V
28 -119 V
6 -15 V
9 -14 V
6 -5 V
9 0 V
1 1 V
6 6 V
2 3 V
3 4 V
3 7 V
28 103 V
6 35 V
9 -38 V
5 -74 V
6 -65 V
15 26 V
5 82 V
3 52 V
3 60 V
8 71 V
7 -27 V
27 -82 V
7 -12 V
14 -12 V
6 -1 V
9 4 V
10 11 V
27 71 V
7 24 V
8 -69 V
6 -100 V
5 -87 V
15 -25 V
6 63 V
6 72 V
8 38 V
6 -33 V
28 -90 V
45 30 V
28 129 V
6 41 V
9 -42 V
5 -84 V
6 -74 V
stroke 2930 717 M
15 22 V
6 94 V
5 108 V
9 69 V
6 -34 V
28 -112 V
5 -13 V
12 -25 V
8 -10 V
20 -1 V
28 51 V
0 2 V
6 19 V
9 -63 V
5 -89 V
6 -76 V
15 -16 V
5 62 V
6 71 V
9 43 V
6 -26 V
27 -64 V
6 -3 V
21 14 V
9 22 V
10 30 V
27 140 V
7 43 V
8 -51 V
6 -95 V
5 -84 V
15 8 V
6 93 V
6 105 V
8 61 V
7 -40 V
27 -134 V
4 -14 V
17 -41 V
1 -3 V
17 -13 V
7 1 V
27 48 V
6 21 V
9 -52 V
6 -78 V
5 -67 V
15 0 V
6 66 V
5 78 V
9 52 V
6 -21 V
28 -49 V
5 -1 V
4 0 V
34 64 V
2 8 V
28 134 V
2 10 V
4 30 V
9 -61 V
5 -105 V
6 -92 V
15 -5 V
2 30 V
0 7 V
8 135 V
1 13 V
9 54 V
6 -43 V
28 -138 V
3 -14 V
1 -2 V
5 -15 V
16 -32 V
6 -5 V
6 -2 V
6 2 V
2 2 V
28 58 V
6 24 V
8 -45 V
6 -73 V
6 -63 V
15 11 V
1 20 V
8 114 V
2 25 V
8 60 V
7 -20 V
27 -51 V
6 -2 V
7 1 V
7 4 V
14 24 V
12 30 V
27 119 V
6 36 V
9 -67 V
6 -107 V
5 -94 V
15 -18 V
3 32 V
6 93 V
stroke 3960 851 M
2 39 V
9 44 V
2 -14 V
4 -28 V
28 -133 V
3 -9 V
5 -15 V
7 -14 V
5 -8 V
3 -2 V
% End plot #4
stroke
LTb
LCb setrgbcolor
516 2879 N
516 384 L
3587 0 V
0 2495 V
-3587 0 V
Z stroke
1.000 UP
1.000 UL
LTb
LCb setrgbcolor
stroke
grestore
end
showpage
%%Trailer
%%DocumentFonts: Helvetica
