/*********************************************************************
Old initial conditions from MADX at ELENA extraction point to LNE50
*********************************************************************/

betx0              =          3.967036307 ;
bety0              =          4.677372925 ;
alfx0              =          2.558678988 ;
alfy0              =          0.423576109 ;
dx0                =        0.7900766952/beta ;
dy0                =                  0  ;
dpx0               =        0.3470981071/beta ;
dpy0               =                  0  ;